id,name,model_id:id,group_id:id,perm_read,perm_write,perm_create,perm_unlink
access_approval_payment,node3.payment.approval.user,model_node3_payment_approval,,1,0,0,0
access_approval_payment,node3.payment.approval.manager,model_node3_payment_approval,,1,1,1,1
access_approval_payment,node3.payment.approval,model_node3_payment_approval,,1,1,1,
