id,name,background_color,background_color_inherit,color_inherit,divider_inherit,dp_inherit,divider_inherit,divider,font_size,font_size_inherit,font_style,font_style_inherit,font_weight,font_weight_inherit,hide_always,hide_always_inherit,hide_empty,hide_empty_inherit,indent_level,indent_level_inherit,prefix,prefix_inherit,dp,suffix,suffix_inherit,color
vit_style_1,H1,#FFFFFF,TRUE,TRUE,TRUE,TRUE,TRUE,1,large,FALSE,Normal,TRUE,Bold,FALSE,FALSE,TRUE,FALSE,TRUE,0,TRUE,,TRUE,0,,TRUE,#000000
vit_style_2,H2,#FFFFFF,TRUE,TRUE,TRUE,TRUE,TRUE,1,medium,TRUE,Normal,TRUE,Normal,TRUE,FALSE,TRUE,FALSE,TRUE,1,FALSE,,TRUE,0,,TRUE,#000000
vit_style_3,H3,#FFFFFF,TRUE,TRUE,TRUE,TRUE,TRUE,1,small,FALSE,Normal,TRUE,Normal,TRUE,FALSE,TRUE,FALSE,TRUE,2,FALSE,,TRUE,0,,TRUE,#000000
vit_style_4,H4,#FFFFFF,TRUE,TRUE,TRUE,TRUE,TRUE,1,medium,TRUE,Normal,TRUE,Normal,TRUE,FALSE,TRUE,FALSE,TRUE,3,FALSE,,TRUE,0,,TRUE,#000000
vit_style_5,TOTAL,#FFFFFF,TRUE,TRUE,TRUE,TRUE,TRUE,1,medium,TRUE,Italic,FALSE,Normal,TRUE,FALSE,TRUE,FALSE,TRUE,5,FALSE,,TRUE,0,,TRUE,#000000
